


esercizio 1:

1.1)link 1_1_2

1.2)	category_3_1
	category_3_1_1   
	category_3_1_2

1.3)	categories
	category_1   
	categories_1_1_1
	category_1_1_1
	category_1_1_2
	categories_1_2_1
	category_2
	category_3
	categories_3_1_1
	category_3_1_1
	category3_1_2

1.4)	niente

1.5)	link_3_1_2

1.6)	niente

1.7)	link_1_1_1
	link_1_1_2
	link_1_2_1
	link_3_1_1
	link_3_1_2

esercizio 2:

2.1) specificitÓ: 5-11-1-3
	first level <li>: color:red , bc:gray
	second level <li>: color: #33551, bc:yellow
	third level <li>: color:green, bc:yellow, font-			  	           font-size:20px

2.2) specificitÓ: 1-23-23-17
	first level <a>:color:red , font-weight:bold 
	second level <a>: color:black , font-                          weight:normal
	third level <a>: color:yellow , font-size:15px,                          font-weight:normal
			
